Manipulação de banco de dados em Julia
…
Padronização de Dados: Usamos isso para corrigir dados inconsistentes (Problema 2: ICU vs surgery). Se não padronizarmos, nossos filtros e agrupamentos falharão.

Função Principal (Julia): transform() (Usada para modificar uma coluna). Funções Auxiliares (Julia): ByRow() (Para aplicar uma função em cada linha) e lowercase() (A função específica que usaremos para converter para minúsculas).

# 1. Mostrar os valores únicos ANTES da limpeza
println("Valores únicos ANTES: ", unique(df_limpo.service))

Valores únicos ANTES: String31["surgery", "general_medicine", "emergency", "ICU"]

# 2. Aplicar a transformação: :service => ByRow(lowercase) => :service
df_limpo = transform(df_limpo, :service => ByRow(lowercase) => :service)

1000×6 DataFrame
  Row │ patient_id    age    arrival_date  departure_date  service           s ⋯
      │ String15      Int64  Dates.Date?   Dates.Date?     String            F ⋯
──────┼─────────────────────────────────────────────────────────────────────────
    1 │ PAT-09484753     24  2025-03-16    2025-03-22      surgery             ⋯
    2 │ PAT-f0644084      6  2025-12-13    2025-12-14      surgery
    3 │ PAT-ac6162e4     24  2025-06-29    2025-07-05      general_medicine
    4 │ PAT-3dda2bb5     32  2025-10-12    2025-10-23      emergency
    5 │ PAT-08591375     25  2025-02-18    2025-02-25      icu                 ⋯
    6 │ PAT-f4b29bae     83  2025-06-26    2025-06-30      emergency
    7 │ PAT-283cda07     62  2025-12-26    2025-12-27      emergency
    8 │ PAT-5b61868c      0  2025-05-21    2025-06-04      icu
  ⋮   │      ⋮          ⋮         ⋮              ⋮                ⋮            ⋱
  994 │ PAT-e5d6a9cf     76  2025-12-27    missing         icu                 ⋯
  995 │ PAT-2fa08c0d     79  2025-01-22    missing         emergency
  996 │ PAT-a01bf534     26  2025-12-02    2025-12-04      emergency
  997 │ PAT-87fa07bd     89  2025-11-18    2025-11-30      emergency
  998 │ PAT-8f07e894     72  2025-12-12    2025-12-21      icu                 ⋯
  999 │ PAT-4ae301e1     47  2025-02-08    2025-02-20      icu
 1000 │ PAT-e2ef9c5f     64  2025-05-04    2025-05-08      general_medicine
                                                   1 column and 985 rows omitted
…
Tratamento de Dados Faltantes: Aqui corrigimos o Problema 3 (os valores missing). Não podemos fazer cálculos com nulos. Temos duas estratégias: 1. Nulos Críticos: Se o dado é essencial (como arrival_date), removemos a linha inteira. Função (Julia): dropmissing() 2. Nulos Não-Críticos: Se o dado é opcional (como satisfaction), preenchemos o buraco. Função (Julia): coalesce() (Substitui o missing por um valor padrão, como a mediana).

# --- 1. Nulos Críticos (dropmissing) ---
println("Total de linhas ANTES de 'dropmissing': ", nrow(df_limpo))

Total de linhas ANTES de 'dropmissing': 1000

# Removemos linhas onde a coluna :arrival_date é 'missing'
dropmissing!(df_limpo, :arrival_date)

950×6 DataFrame
 Row │ patient_id    age    arrival_date  departure_date  service           sa ⋯
     │ String15      Int64  Dates.Date    Dates.Date?     String            Fl ⋯
─────┼──────────────────────────────────────────────────────────────────────────
   1 │ PAT-09484753     24  2025-03-16    2025-03-22      surgery              ⋯
   2 │ PAT-f0644084      6  2025-12-13    2025-12-14      surgery
   3 │ PAT-ac6162e4     24  2025-06-29    2025-07-05      general_medicine
   4 │ PAT-3dda2bb5     32  2025-10-12    2025-10-23      emergency
   5 │ PAT-08591375     25  2025-02-18    2025-02-25      icu                  ⋯
   6 │ PAT-f4b29bae     83  2025-06-26    2025-06-30      emergency
   7 │ PAT-283cda07     62  2025-12-26    2025-12-27      emergency
   8 │ PAT-5b61868c      0  2025-05-21    2025-06-04      icu
  ⋮  │      ⋮          ⋮         ⋮              ⋮                ⋮             ⋱
 944 │ PAT-e5d6a9cf     76  2025-12-27    missing         icu                  ⋯
 945 │ PAT-2fa08c0d     79  2025-01-22    missing         emergency
 946 │ PAT-a01bf534     26  2025-12-02    2025-12-04      emergency
 947 │ PAT-87fa07bd     89  2025-11-18    2025-11-30      emergency
 948 │ PAT-8f07e894     72  2025-12-12    2025-12-21      icu                  ⋯
 949 │ PAT-4ae301e1     47  2025-02-08    2025-02-20      icu
 950 │ PAT-e2ef9c5f     64  2025-05-04    2025-05-08      general_medicine
                                                   1 column and 935 rows omitted
…
Reordenar colunas(sort ou sort!)

E para finalizar vamos reordenar a coluna attendance que acabamos de criar para mostrar os médicos presentes (present) primeiro e os não presentes (absent) depois para cada semana usando a função sort ou sort!.

sorted = sort(df_funcionarios, [:week, :attendance])
select(first(sorted, 30), [:week, :staff_name, :role, :service, :attendance])

select(first(sorted, 30), [:week, :staff_name, :role, :attendance])

30×4 DataFrame
 Row │ week   staff_name            role               attendance
     │ Int64  String31              String31           Any
─────┼────────────────────────────────────────────────────────────
   1 │     1  Ryan Munoz            nurse              absent
   2 │     1  Michele Williams      nurse              absent
   3 │     1  Carla Gray            nurse              absent
   4 │     1  Justin Baker          nurse              absent
   5 │     1  Angelica Tucker       nurse              absent
   6 │     1  Donald Wright         nursing_assistant  absent
   7 │     1  Sarah Moore           nurse              absent
   8 │     1  Sandra Aguilar        nurse              absent
  ⋮  │   ⋮             ⋮                    ⋮              ⋮
  24 │     1  Brian Ramirez         nurse              present
  25 │     1  Holly Wood            nurse              present
  26 │     1  Derek Zuniga          nurse              present
  27 │     1  Lisa Jackson          nurse              present
  28 │     1  Margaret Hawkins DDS  nurse              present
  29 │     1  Patty Perez           nurse              present
  30 │     1  Ethan Adams           nurse              present
                                                   15 rows omitted
…
# Mantendo apenas as colunas necessárias
df_small <- df %>% 
select(week, staff_name, present)

# Pivotando (cada staff vira coluna)
df_wide <- df_small %>%
   pivot_wider(
     names_from = staff_name,
     values_from = present
   ) %>%
   arrange(week)

 print(df_wide)

# A tibble: 52 × 127
    week `Allison Hill` `Noah Rhodes` `Angie Henderson` `Daniel Wagner`
   <dbl>          <dbl>         <dbl>             <dbl>           <dbl>
 1     1              1             1                 1               1
 2     2              1             1                 1               1
 3     3              0             0                 0               0
 4     4              1             1                 0               1
 5     5              1             1                 1               1
 6     6              0             0                 0               0
 7     7              1             1                 0               1
 8     8              1             1                 1               1
 9     9              0             0                 0               0
10    10              1             1                 0               1
# ℹ 42 more rows
# ℹ 122 more variables: `Cristian Santos` <dbl>, `Connie Lawrence` <dbl>,
#   `Abigail Shaffer` <dbl>, `Gina Moore` <dbl>, `Gabrielle Davis` <dbl>,
#   `Ryan Munoz` <dbl>, `Monica Herrera` <dbl>, `Jamie Arnold` <dbl>,
#   `Lisa Hensley` <dbl>, `Michele Williams` <dbl>, `Dylan Miller` <dbl>,
#   `Brian Ramirez` <dbl>, `Holly Wood` <dbl>, `Derek Zuniga` <dbl>,
#   `Lisa Jackson` <dbl>, `Carla Gray` <dbl>, `Margaret Hawkins DDS` <dbl>, …
…
# Juntando as tabelas
df_join <- df_funcionarios_semanal %>%
  inner_join(df_servicos_pivot, by = "week")

df_join

# A tibble: 52 × 8
    week funcionarios_presentes available_beds patients_request
   <dbl>                  <dbl>          <dbl>            <dbl>
 1     1                    116            136              438
 2     2                    115            127              385
 3     3                      0            116              322
 4     4                    107            151              387
 5     5                    108            113              574
 6     6                      0            144              358
 7     7                    115            153              300
 8     8                    109            147              375
 9     9                      0             99              252
10    10                    112            103              259
# ℹ 42 more rows
# ℹ 4 more variables: patients_admitted <dbl>, patients_refused <dbl>,
#   patient_satisfaction <dbl>, staff_morale <dbl>
…
